PSYC167 - Reading data files
…
Reading a .csv File Stored on a Website

For example, although the mtcars data is also a built-in data set in R, if it were a read actual .csv file save on some website, you can pass the URL path as the file. This file does exist on the {tidyverse} github for {readr}.

readr::read_csv(file = "https://github.com/tidyverse/readr/raw/main/inst/extdata/mtcars.csv")

Rows: 32 Columns: 11
── Column specification ────────────────────────────────────────────────────────
Delimiter: ","
dbl (11): mpg, cyl, disp, hp, drat, wt, qsec, vs, am, gear, carb

ℹ Use `spec()` to retrieve the full column specification for this data.
ℹ Specify the column types or set `show_col_types = FALSE` to quiet this message.

# A tibble: 32 × 11
     mpg   cyl  disp    hp  drat    wt  qsec    vs    am  gear  carb
   <dbl> <dbl> <dbl> <dbl> <dbl> <dbl> <dbl> <dbl> <dbl> <dbl> <dbl>
 1  21       6  160    110  3.9   2.62  16.5     0     1     4     4
 2  21       6  160    110  3.9   2.88  17.0     0     1     4     4
 3  22.8     4  108     93  3.85  2.32  18.6     1     1     4     1
 4  21.4     6  258    110  3.08  3.22  19.4     1     0     3     1
 5  18.7     8  360    175  3.15  3.44  17.0     0     0     3     2
 6  18.1     6  225    105  2.76  3.46  20.2     1     0     3     1
 7  14.3     8  360    245  3.21  3.57  15.8     0     0     3     4
 8  24.4     4  147.    62  3.69  3.19  20       1     0     4     2
 9  22.8     4  141.    95  3.92  3.15  22.9     1     0     4     2
10  19.2     6  168.   123  3.92  3.44  18.3     1     0     4     4
# ℹ 22 more rows

Because file if the first argument of the function, you do not need to reference it specifically. Doing so just eliminates ambiguity for more complicated function calls. You will come across a lot of examples of code that do NOT reference the arguments by name.

readr::read_csv("https://github.com/tidyverse/readr/raw/main/inst/extdata/mtcars.csv")

Rows: 32 Columns: 11
── Column specification ────────────────────────────────────────────────────────
Delimiter: ","
dbl (11): mpg, cyl, disp, hp, drat, wt, qsec, vs, am, gear, carb

ℹ Use `spec()` to retrieve the full column specification for this data.
ℹ Specify the column types or set `show_col_types = FALSE` to quiet this message.

# A tibble: 32 × 11
     mpg   cyl  disp    hp  drat    wt  qsec    vs    am  gear  carb
   <dbl> <dbl> <dbl> <dbl> <dbl> <dbl> <dbl> <dbl> <dbl> <dbl> <dbl>
 1  21       6  160    110  3.9   2.62  16.5     0     1     4     4
 2  21       6  160    110  3.9   2.88  17.0     0     1     4     4
 3  22.8     4  108     93  3.85  2.32  18.6     1     1     4     1
 4  21.4     6  258    110  3.08  3.22  19.4     1     0     3     1
 5  18.7     8  360    175  3.15  3.44  17.0     0     0     3     2
 6  18.1     6  225    105  2.76  3.46  20.2     1     0     3     1
 7  14.3     8  360    245  3.21  3.57  15.8     0     0     3     4
 8  24.4     4  147.    62  3.69  3.19  20       1     0     4     2
 9  22.8     4  141.    95  3.92  3.15  22.9     1     0     4     2
10  19.2     6  168.   123  3.92  3.44  18.3     1     0     4     4
# ℹ 22 more rows

By default, readr::read_csv() tries to guess whether column/variable names are present. If you know they exist, you can set col_names = TRUE.

readr::read_csv("https://github.com/tidyverse/readr/raw/main/inst/extdata/mtcars.csv", col_names = T)

Rows: 32 Columns: 11
── Column specification ────────────────────────────────────────────────────────
Delimiter: ","
dbl (11): mpg, cyl, disp, hp, drat, wt, qsec, vs, am, gear, carb

ℹ Use `spec()` to retrieve the full column specification for this data.
ℹ Specify the column types or set `show_col_types = FALSE` to quiet this message.

# A tibble: 32 × 11
     mpg   cyl  disp    hp  drat    wt  qsec    vs    am  gear  carb
   <dbl> <dbl> <dbl> <dbl> <dbl> <dbl> <dbl> <dbl> <dbl> <dbl> <dbl>
 1  21       6  160    110  3.9   2.62  16.5     0     1     4     4
 2  21       6  160    110  3.9   2.88  17.0     0     1     4     4
 3  22.8     4  108     93  3.85  2.32  18.6     1     1     4     1
 4  21.4     6  258    110  3.08  3.22  19.4     1     0     3     1
 5  18.7     8  360    175  3.15  3.44  17.0     0     0     3     2
 6  18.1     6  225    105  2.76  3.46  20.2     1     0     3     1
 7  14.3     8  360    245  3.21  3.57  15.8     0     0     3     4
 8  24.4     4  147.    62  3.69  3.19  20       1     0     4     2
 9  22.8     4  141.    95  3.92  3.15  22.9     1     0     4     2
10  19.2     6  168.   123  3.92  3.44  18.3     1     0     4     4
# ℹ 22 more rows

If the names are present and you set col_names = FALSE, you will get a mess because {readr} will assume the header row is data just as the rest of the file.

readr::read_csv("https://github.com/tidyverse/readr/raw/main/inst/extdata/mtcars.csv", col_names = F)

Rows: 33 Columns: 11
── Column specification ────────────────────────────────────────────────────────
Delimiter: ","
chr (11): X1, X2, X3, X4, X5, X6, X7, X8, X9, X10, X11

ℹ Use `spec()` to retrieve the full column specification for this data.
ℹ Specify the column types or set `show_col_types = FALSE` to quiet this message.

# A tibble: 33 × 11
   X1    X2    X3    X4    X5    X6    X7    X8    X9    X10   X11  
   <chr> <chr> <chr> <chr> <chr> <chr> <chr> <chr> <chr> <chr> <chr>
 1 mpg   cyl   disp  hp    drat  wt    qsec  vs    am    gear  carb 
 2 21    6     160   110   3.9   2.62  16.46 0     1     4     4    
 3 21    6     160   110   3.9   2.875 17.02 0     1     4     4    
 4 22.8  4     108   93    3.85  2.32  18.61 1     1     4     1    
 5 21.4  6     258   110   3.08  3.215 19.44 1     0     3     1    
 6 18.7  8     360   175   3.15  3.44  17.02 0     0     3     2    
 7 18.1  6     225   105   2.76  3.46  20.22 1     0     3     1    
 8 14.3  8     360   245   3.21  3.57  15.84 0     0     3     4    
 9 24.4  4     146.7 62    3.69  3.19  20    1     0     4     2    
10 22.8  4     140.8 95    3.92  3.15  22.9  1     0     4     2    
# ℹ 23 more rows
…
If a file actually existed on your computer, the file would not be a URL but rather the path location to where the file is stored.

And now we can read the locale file as before except we are not passing the string name but rather an object (e.g., file_csv) holding the file path and file name. Voilà.

readr::read_csv(here::here("data", file_csv))

Rows: 440 Columns: 5
── Column specification ────────────────────────────────────────────────────────
Delimiter: ","
chr (5): time, name, year, event, team

ℹ Use `spec()` to retrieve the full column specification for this data.
ℹ Specify the column types or set `show_col_types = FALSE` to quiet this message.

# A tibble: 440 × 5
   time  name             year  event   team  
   <chr> <chr>            <chr> <chr>   <chr> 
 1 23.29 Jocelyn Crawford 2019  50 FREE Athena
 2 23.31 Ava Sealander    2022  50 FREE Athena
 3 23.49 Kelly Ngo        2016  50 FREE Athena
 4 23.71 Helen Liu        2014  50 FREE Athena
 5 23.76 Michele Kee      2014  50 FREE Athena
 6 23.77 Natalia Orbach-M 2020  50 FREE Athena
 7 23.77 Suzia Starzyk    2020  50 FREE Athena
 8 23.87 Katie Bilotti    2010  50 FREE Athena
 9 23.93 Jenni Rinker     2011  50 FREE Athena
10 24.02 Annika Sharma    2023  50 FREE Athena
# ℹ 430 more rows
Reading Raw Data that is Comma-Separated (e.g., .csv)

We will file use readr::read_csv() to read our data file (viz., cms-top-all-time-2023-swim.csv).

readr::read_csv(here::here("data", file_csv))

Rows: 440 Columns: 5
── Column specification ────────────────────────────────────────────────────────
Delimiter: ","
chr (5): time, name, year, event, team

ℹ Use `spec()` to retrieve the full column specification for this data.
ℹ Specify the column types or set `show_col_types = FALSE` to quiet this message.

# A tibble: 440 × 5
   time  name             year  event   team  
   <chr> <chr>            <chr> <chr>   <chr> 
 1 23.29 Jocelyn Crawford 2019  50 FREE Athena
 2 23.31 Ava Sealander    2022  50 FREE Athena
 3 23.49 Kelly Ngo        2016  50 FREE Athena
 4 23.71 Helen Liu        2014  50 FREE Athena
 5 23.76 Michele Kee      2014  50 FREE Athena
 6 23.77 Natalia Orbach-M 2020  50 FREE Athena
 7 23.77 Suzia Starzyk    2020  50 FREE Athena
 8 23.87 Katie Bilotti    2010  50 FREE Athena
 9 23.93 Jenni Rinker     2011  50 FREE Athena
10 24.02 Annika Sharma    2023  50 FREE Athena
# ℹ 430 more rows

If there were only data in the file and no names representing variables on the first row, the file might look like that below. We can imitate this by skipping the first row (containing names) using skip =.

readr::read_csv(here::here("data", file_csv), skip = 1)

Rows: 439 Columns: 5
── Column specification ────────────────────────────────────────────────────────
Delimiter: ","
chr (5): 23.29, Jocelyn Crawford, 2019, 50 FREE, Athena

ℹ Use `spec()` to retrieve the full column specification for this data.
ℹ Specify the column types or set `show_col_types = FALSE` to quiet this message.

# A tibble: 439 × 5
   `23.29` `Jocelyn Crawford` `2019` `50 FREE` Athena
   <chr>   <chr>              <chr>  <chr>     <chr> 
 1 23.31   Ava Sealander      2022   50 FREE   Athena
 2 23.49   Kelly Ngo          2016   50 FREE   Athena
 3 23.71   Helen Liu          2014   50 FREE   Athena
 4 23.76   Michele Kee        2014   50 FREE   Athena
 5 23.77   Natalia Orbach-M   2020   50 FREE   Athena
 6 23.77   Suzia Starzyk      2020   50 FREE   Athena
 7 23.87   Katie Bilotti      2010   50 FREE   Athena
 8 23.93   Jenni Rinker       2011   50 FREE   Athena
 9 24.02   Annika Sharma      2023   50 FREE   Athena
10 51.05   Kelly Ngo          2016   100 FREE  Athena
# ℹ 429 more rows
…
readr::read_csv(here::here("data", file_csv), 
                skip = 1,
                col_names = F
                )

Rows: 440 Columns: 5
── Column specification ────────────────────────────────────────────────────────
Delimiter: ","
chr (5): X1, X2, X3, X4, X5

ℹ Use `spec()` to retrieve the full column specification for this data.
ℹ Specify the column types or set `show_col_types = FALSE` to quiet this message.

# A tibble: 440 × 5
   X1    X2               X3    X4      X5    
   <chr> <chr>            <chr> <chr>   <chr> 
 1 23.29 Jocelyn Crawford 2019  50 FREE Athena
 2 23.31 Ava Sealander    2022  50 FREE Athena
 3 23.49 Kelly Ngo        2016  50 FREE Athena
 4 23.71 Helen Liu        2014  50 FREE Athena
 5 23.76 Michele Kee      2014  50 FREE Athena
 6 23.77 Natalia Orbach-M 2020  50 FREE Athena
 7 23.77 Suzia Starzyk    2020  50 FREE Athena
 8 23.87 Katie Bilotti    2010  50 FREE Athena
 9 23.93 Jenni Rinker     2011  50 FREE Athena
10 24.02 Annika Sharma    2023  50 FREE Athena
# ℹ 430 more rows
…
readr::read_csv(here::here("data", file_csv), 
                skip = 1,
                col_names = c("time", "name", "year", "event")
                )

Rows: 440 Columns: 5
── Column specification ────────────────────────────────────────────────────────
Delimiter: ","
chr (5): time, name, year, event, X5

ℹ Use `spec()` to retrieve the full column specification for this data.
ℹ Specify the column types or set `show_col_types = FALSE` to quiet this message.

# A tibble: 440 × 5
   time  name             year  event   X5    
   <chr> <chr>            <chr> <chr>   <chr> 
 1 23.29 Jocelyn Crawford 2019  50 FREE Athena
 2 23.31 Ava Sealander    2022  50 FREE Athena
 3 23.49 Kelly Ngo        2016  50 FREE Athena
 4 23.71 Helen Liu        2014  50 FREE Athena
 5 23.76 Michele Kee      2014  50 FREE Athena
 6 23.77 Natalia Orbach-M 2020  50 FREE Athena
 7 23.77 Suzia Starzyk    2020  50 FREE Athena
 8 23.87 Katie Bilotti    2010  50 FREE Athena
 9 23.93 Jenni Rinker     2011  50 FREE Athena
10 24.02 Annika Sharma    2023  50 FREE Athena
# ℹ 430 more rows
If you have column names that are on row 1 of the data frame, don’t skip that row and instead set col_names = TRUE to put them in place.

readr::read_csv(here::here("data", file_csv), 
                col_names = T
                )

Rows: 440 Columns: 5
── Column specification ────────────────────────────────────────────────────────
Delimiter: ","
chr (5): time, name, year, event, team

ℹ Use `spec()` to retrieve the full column specification for this data.
ℹ Specify the column types or set `show_col_types = FALSE` to quiet this message.

# A tibble: 440 × 5
   time  name             year  event   team  
   <chr> <chr>            <chr> <chr>   <chr> 
 1 23.29 Jocelyn Crawford 2019  50 FREE Athena
 2 23.31 Ava Sealander    2022  50 FREE Athena
 3 23.49 Kelly Ngo        2016  50 FREE Athena
 4 23.71 Helen Liu        2014  50 FREE Athena
 5 23.76 Michele Kee      2014  50 FREE Athena
 6 23.77 Natalia Orbach-M 2020  50 FREE Athena
 7 23.77 Suzia Starzyk    2020  50 FREE Athena
 8 23.87 Katie Bilotti    2010  50 FREE Athena
 9 23.93 Jenni Rinker     2011  50 FREE Athena
10 24.02 Annika Sharma    2023  50 FREE Athena
# ℹ 430 more rows
…
