PSYC166 - Data subsets and summaries
…
Perhaps you only want to obtain the mean() or the sum() or the sd() for a variable. If so, this is easiest.

Grouping by one variable:

The data in cms-top-all-time-2023-swim.xlsx contain the top records for swimming events. You might be curious what year was the best of all time or what swimmer (e.g., name) has attained the most records of all time. There are different ways to accomplish this goal.

One approach that might be the most straight forward to new programmers is to mutate a constant count variable on each row which can be used to sum the counts for different groups.

DAT %>%
  mutate(., count = 1) %>%         # mutate a new variable where all rows get a 1
  group_by(., name) %>%            # group by the swimmer name
  summarise(., count = sum(count)) # sum the count and assign it the name count

# A tibble: 142 × 2
   name            count
   <chr>           <dbl>
 1 A Breazeale         8
 2 A Roeseler          2
 3 Aaron Lutzker       6
 4 Abel Sapirstein     1
 5 Alec Vercruysse     4
 6 Alex Mendoza        2
 7 Alex Poltash        6
 8 Allyson Yao         3
 9 Amy Fuller          1
10 Andrew Cox          4
# ℹ 132 more rows

By default, the data frame is arranged by the grouping variable (e.g., name). We can change the order of the rows by count using arrange() but this function by default sorts in an ascending manner. If you want a descending sorting, pass count to desc() to arrange the data frame in this way. We can also assign it to an object.

NAME_count <- DAT %>%
  mutate(., count = 1) %>%
  group_by(., name) %>%
  summarise(., count = sum(count)) %>%
  arrange(., desc(count))

NAME_count

# A tibble: 142 × 2
   name          count
   <chr>         <dbl>
 1 Michele Kee      11
 2 Augusta Lewis    10
 3 Matt Williams    10
 4 Kelly Ngo         9
 5 A Breazeale       8
 6 Ava Sealander     8
 7 Gary Simon        8
 8 Marco Conati      8
 9 Nic Tekieli       7
10 Aaron Lutzker     6
# ℹ 132 more rows

We can see that the top counts of all time are by Michele Kee for a total of 11. Kudos to Michele!

YEAR_count <- DAT %>%
  mutate(., count = 1) %>%
  group_by(., year) %>%
  summarise(., count = sum(count)) %>%
  arrange(., desc(count))

YEAR_count

# A tibble: 32 × 2
   year  count
   <chr> <dbl>
 1 2022     81
 2 2023     59
 3 2020     41
 4 2017     38
 5 2014     27
 6 2019     23
 7 2013     22
 8 2015     20
 9 2016     17
10 2018     16
# ℹ 22 more rows
…
We can also summarize both the teams as well in order to see the top swimmer by team. If you want to summarize more than one variable, pass them both in group_by():

TEAM_NAME_count <- DAT %>%
  mutate(., count = 1) %>%
  group_by(., team, name) %>%
  summarise(., count = sum(count)) %>%
  arrange(., desc(count))

`summarise()` has grouped output by 'team'. You can override using the
`.groups` argument.

TEAM_NAME_count

# A tibble: 142 × 3
# Groups:   team [2]
   team   name          count
   <chr>  <chr>         <dbl>
 1 Athena Michele Kee      11
 2 Athena Augusta Lewis    10
 3 Stag   Matt Williams    10
 4 Athena Kelly Ngo         9
 5 Athena Ava Sealander     8
 6 Stag   A Breazeale       8
 7 Stag   Gary Simon        8
 8 Stag   Marco Conati      8
 9 Stag   Nic Tekieli       7
10 Athena Ella Blake        6
# ℹ 132 more rows

Filtering rows and then grouping by one variable:

For Athenas:

ATHENA_NAME_count <- DAT %>%
  mutate(., count = 1) %>%
  filter(., team == "Athena") %>%
  group_by(., name) %>%
  summarise(., count = sum(count)) %>%
  arrange(., desc(count))

ATHENA_NAME_count

# A tibble: 67 × 2
   name               count
   <chr>              <dbl>
 1 Michele Kee           11
 2 Augusta Lewis         10
 3 Kelly Ngo              9
 4 Ava Sealander          8
 5 Ella Blake             6
 6 Jamee Mitchum          6
 7 Katie Bilotti          6
 8 Mackenzie Mayfield     6
 9 Annika Jessen          5
10 Jocelyn Crawford       5
# ℹ 57 more rows

We can see that the top counts of all time are by Michele Kee with a total of 11. Nice work Michele!

And for Stags:

STAG_NAME_count <- DAT %>%
  mutate(., count = 1) %>%
  filter(., team == "Stag") %>%
  group_by(., name) %>%
  summarise(., count = sum(count)) %>%
  arrange(., desc(count))

STAG_NAME_count

# A tibble: 75 × 2
   name          count
   <chr>         <dbl>
 1 Matt Williams    10
 2 A Breazeale       8
 3 Gary Simon        8
 4 Marco Conati      8
 5 Nic Tekieli       7
 6 Aaron Lutzker     6
 7 Alex Poltash      6
 8 Blake Weber       6
 9 Sam Willett       5
10 Tom Harrison      5
# ℹ 65 more rows
…
Sometimes you need more than one summary statistic, for example, the mean() and the sd(). This is a little more complex to code.

Note: In these code blocks, some arguments may be removed for readability.

Grouping by one variable:

DAT %>%
  group_by(., event) %>%
  summarise(., 
            sec_mean = mean(sec, na.rm = T),  
            sec_median = median(sec, na.rm = T)
            )

# A tibble: 22 × 3
   event               sec_mean sec_median
   <chr>                  <dbl>      <dbl>
 1 100 BACK               3209.      3212.
 2 100 BREAST             1725.      1696.
 3 100 BRST-Relay Spl.    1710.      1678.
 4 100 FLY                3158.      3165 
 5 100 FLY-Relay Spl.     3135.      3152.
 6 100 FREE               2917.      2908.
 7 100 FREE-Relay Spl.    2888.      2896 
 8 1000 FREE               601.       601.
 9 1650 FREE               990.       991.
10 200 BACK                116.       116.
# ℹ 12 more rows
We can also write the summary functions as a list inside across() along with passing .names = "{.col}_{.fn}" if you want the variables named automatically. This approach is more complex but is more flexible.

When you want to summarize across multiple variables using a list of functions, you will want to make sure your .fns argument passes a function using a {purrr}-style lambda (e.g.,~) for that the function is applied across the variables. You will also want to edit .names = "{.col}_{.fn}" so that the naming is done automatically rather than hard coding the names.

DAT %>%
  group_by(., event) %>%
  summarise(., across(.cols = "sec",
                      .fns  = list(mean = ~mean(na.omit(.x)),
                                   median = ~median(na.omit(.x))
                                   ),
                      .names = "{.col}_{.fn}"
                      )
            ) 

# A tibble: 22 × 3
   event               sec_mean sec_median
   <chr>                  <dbl>      <dbl>
 1 100 BACK               3209.      3212.
 2 100 BREAST             1725.      1696.
 3 100 BRST-Relay Spl.    1710.      1678.
 4 100 FLY                3158.      3165 
 5 100 FLY-Relay Spl.     3135.      3152.
 6 100 FREE               2917.      2908.
 7 100 FREE-Relay Spl.    2888.      2896 
 8 1000 FREE               601.       601.
 9 1650 FREE               990.       991.
10 200 BACK                116.       116.
# ℹ 12 more rows

Grouping by two or more variables:

DAT %>%
  group_by(., event, team) %>%
  summarise(., 
            sec_mean = mean(sec, na.rm = T),  
            sec_median = median(sec, na.rm = T)
            )

`summarise()` has grouped output by 'event'. You can override using the
`.groups` argument.

# A tibble: 44 × 4
# Groups:   event [22]
   event               team   sec_mean sec_median
   <chr>               <chr>     <dbl>      <dbl>
 1 100 BACK            Athena   3421.      3436  
 2 100 BACK            Stag     2996.      3032  
 3 100 BREAST          Athena     64.0       64.2
 4 100 BREAST          Stag     3386.      3394. 
 5 100 BRST-Relay Spl. Athena     63.6       64.1
 6 100 BRST-Relay Spl. Stag     3356.      3363  
 7 100 FLY             Athena   3365.      3369  
 8 100 FLY             Stag     2950.      2968. 
 9 100 FLY-Relay Spl.  Athena   3332.      3326  
10 100 FLY-Relay Spl.  Stag     2938.      2937  
# ℹ 34 more rows
…
DAT %>%
  group_by(., event, team) %>%
  summarise(., across(.cols = "sec",
                      .fns  = list(mean = ~mean(na.omit(.x)),
                                   median = ~median(na.omit(.x))
                                   ),
                      .names = "{.col}_{.fn}"
                      )
            ) 

`summarise()` has grouped output by 'event'. You can override using the
`.groups` argument.

# A tibble: 44 × 4
# Groups:   event [22]
   event               team   sec_mean sec_median
   <chr>               <chr>     <dbl>      <dbl>
 1 100 BACK            Athena   3421.      3436  
 2 100 BACK            Stag     2996.      3032  
 3 100 BREAST          Athena     64.0       64.2
 4 100 BREAST          Stag     3386.      3394. 
 5 100 BRST-Relay Spl. Athena     63.6       64.1
 6 100 BRST-Relay Spl. Stag     3356.      3363  
 7 100 FLY             Athena   3365.      3369  
 8 100 FLY             Stag     2950.      2968. 
 9 100 FLY-Relay Spl.  Athena   3332.      3326  
10 100 FLY-Relay Spl.  Stag     2938.      2937  
# ℹ 34 more rows
…
So far, we have shown how to summarize a single variable either with or without grouping by levels of another variable. Summaries, however, are often done for multiple variables in data frame. For example, you might want to obtain the mean() for multiple variables or obtain the mean() and the max() (or some other summary statistic) for multiple variables. The following examples prepare you for such tasks.

A single summary metric

Grouping by one variable:

DAT %>%
  group_by(., event) %>%
  summarise(., across(.cols = c("sec", "min"),
                      .fns = ~mean(.x, na.rm = T),
                      .names = "{.col}_{.fn}"
                      )
            ) 

# A tibble: 22 × 3
   event               sec_1 min_1
   <chr>               <dbl> <dbl>
 1 100 BACK            3209. 53.5 
 2 100 BREAST          1725. 28.8 
 3 100 BRST-Relay Spl. 1710. 28.5 
 4 100 FLY             3158. 52.6 
 5 100 FLY-Relay Spl.  3135. 52.2 
 6 100 FREE            2917. 48.6 
 7 100 FREE-Relay Spl. 2888. 48.1 
 8 1000 FREE            601. 10.0 
 9 1650 FREE            990. 16.5 
10 200 BACK             116.  1.94
# ℹ 12 more rows

Grouping by two or more variables:

DAT %>%
  group_by(., event, team) %>%
  summarise(., across(.cols = c("sec", "min"),
                      .fns = ~mean(.x, na.rm = T),
                      .names = "{.col}_{.fn}"
                      )
            ) 

`summarise()` has grouped output by 'event'. You can override using the
`.groups` argument.

# A tibble: 44 × 4
# Groups:   event [22]
   event               team    sec_1 min_1
   <chr>               <chr>   <dbl> <dbl>
 1 100 BACK            Athena 3421.  57.0 
 2 100 BACK            Stag   2996.  49.9 
 3 100 BREAST          Athena   64.0  1.07
 4 100 BREAST          Stag   3386.  56.4 
 5 100 BRST-Relay Spl. Athena   63.6  1.06
 6 100 BRST-Relay Spl. Stag   3356.  55.9 
 7 100 FLY             Athena 3365.  56.1 
 8 100 FLY             Stag   2950.  49.2 
 9 100 FLY-Relay Spl.  Athena 3332.  55.5 
10 100 FLY-Relay Spl.  Stag   2938.  49.0 
# ℹ 34 more rows
…
And if you need to summarize using multiple metrics, then pass the list into .fns:

Grouping by one variable:

DAT %>%
  group_by(., event) %>%
  summarise(., across(.cols = c("sec", "min"),
                      .fns  = list(mean = ~mean(na.omit(.x)),
                                   median = ~median(na.omit(.x))
                                   ),
                      .names = "{.col}_{.fn}"
                      )
            ) 

# A tibble: 22 × 5
   event               sec_mean sec_median min_mean min_median
   <chr>                  <dbl>      <dbl>    <dbl>      <dbl>
 1 100 BACK               3209.      3212.    53.5       53.5 
 2 100 BREAST             1725.      1696.    28.8       28.3 
 3 100 BRST-Relay Spl.    1710.      1678.    28.5       28.0 
 4 100 FLY                3158.      3165     52.6       52.8 
 5 100 FLY-Relay Spl.     3135.      3152.    52.2       52.5 
 6 100 FREE               2917.      2908.    48.6       48.5 
 7 100 FREE-Relay Spl.    2888.      2896     48.1       48.3 
 8 1000 FREE               601.       601.    10.0       10.0 
 9 1650 FREE               990.       991.    16.5       16.5 
10 200 BACK                116.       116.     1.94       1.93
# ℹ 12 more rows
…
DAT %>%
  group_by(., event, team) %>%
  summarise(., across(.cols = c("sec", "min"),
                      .fns  = list(mean = ~mean(na.omit(.x)),
                                   median = ~median(na.omit(.x))
                                   ),
                      .names = "{.col}_{.fn}"
                      )
            ) 

`summarise()` has grouped output by 'event'. You can override using the
`.groups` argument.

# A tibble: 44 × 6
# Groups:   event [22]
   event               team   sec_mean sec_median min_mean min_median
   <chr>               <chr>     <dbl>      <dbl>    <dbl>      <dbl>
 1 100 BACK            Athena   3421.      3436      57.0       57.3 
 2 100 BACK            Stag     2996.      3032      49.9       50.5 
 3 100 BREAST          Athena     64.0       64.2     1.07       1.07
 4 100 BREAST          Stag     3386.      3394.     56.4       56.6 
 5 100 BRST-Relay Spl. Athena     63.6       64.1     1.06       1.07
 6 100 BRST-Relay Spl. Stag     3356.      3363      55.9       56.0 
 7 100 FLY             Athena   3365.      3369      56.1       56.2 
 8 100 FLY             Stag     2950.      2968.     49.2       49.5 
 9 100 FLY-Relay Spl.  Athena   3332.      3326      55.5       55.4 
10 100 FLY-Relay Spl.  Stag     2938.      2937      49.0       49.0 
# ℹ 34 more rows
…
DAT %>%
  group_by(., team, event) %>%
  summarise(., across(.cols = "sec",
                      .fns  = list(mean = ~mean(na.omit(.x)),
                                   n = ~length(na.omit(.x))
                                   ),
                      .names = "{.col}_{.fn}"
                      )
            ) 

`summarise()` has grouped output by 'team'. You can override using the
`.groups` argument.

# A tibble: 44 × 4
# Groups:   team [2]
   team   event               sec_mean sec_n
   <chr>  <chr>                  <dbl> <int>
 1 Athena 100 BACK              3421.     10
 2 Athena 100 BREAST              64.0    10
 3 Athena 100 BRST-Relay Spl.     63.6    10
 4 Athena 100 FLY               3365.     10
 5 Athena 100 FLY-Relay Spl.    3332.     10
 6 Athena 100 FREE              3115.     10
 7 Athena 100 FREE-Relay Spl.   3088.     10
 8 Athena 1000 FREE              625.     10
 9 Athena 1650 FREE             1031.     10
10 Athena 200 BACK               124.     10
# ℹ 34 more rows
…
Variables that are numeric

You can also pass variables that are a certain type, like numeric.

DAT %>%
  group_by(., team, event) %>%
  summarise(., across(.cols = where(is.numeric), 
                      .fns = ~mean(.x, na.rm = TRUE), 
                      .names = "{.col}")
            )

`summarise()` has grouped output by 'team'. You can override using the
`.groups` argument.

# A tibble: 44 × 6
# Groups:   team [2]
   team   event                 time    sec   min   hour
   <chr>  <chr>                <dbl>  <dbl> <dbl>  <dbl>
 1 Athena 100 BACK            3421.  3421.  57.0  0.950 
 2 Athena 100 BREAST            64.0   64.0  1.07 0.0178
 3 Athena 100 BRST-Relay Spl.   63.6   63.6  1.06 0.0177
 4 Athena 100 FLY             3365.  3365.  56.1  0.935 
 5 Athena 100 FLY-Relay Spl.  3332.  3332.  55.5  0.926 
 6 Athena 100 FREE            3115.  3115.  51.9  0.865 
 7 Athena 100 FREE-Relay Spl. 3088.  3088.  51.5  0.858 
 8 Athena 1000 FREE            625.   625.  10.4  0.174 
 9 Athena 1650 FREE           1031.  1031.  17.2  0.286 
10 Athena 200 BACK             124.   124.   2.07 0.0345
# ℹ 34 more rows
…
DAT %>%
  group_by(., team, event) %>%
  summarise(., across(.cols = starts_with("t"),
                      .fns  = list(mean = ~mean(na.omit(.x)),
                                   n = ~length(na.omit(.x))
                                   ),
                      .names = "{.col}_{.fn}"
                      )
            ) 

`summarise()` has grouped output by 'team'. You can override using the
`.groups` argument.

# A tibble: 44 × 4
# Groups:   team [2]
   team   event               time_mean time_n
   <chr>  <chr>                   <dbl>  <int>
 1 Athena 100 BACK               3421.      10
 2 Athena 100 BREAST               64.0     10
 3 Athena 100 BRST-Relay Spl.      63.6     10
 4 Athena 100 FLY                3365.      10
 5 Athena 100 FLY-Relay Spl.     3332.      10
 6 Athena 100 FREE               3115.      10
 7 Athena 100 FREE-Relay Spl.    3088.      10
 8 Athena 1000 FREE               625.      10
 9 Athena 1650 FREE              1031.      10
10 Athena 200 BACK                124.      10
# ℹ 34 more rows
…
DAT %>%
  group_by(., team, event) %>%
  summarise(., across(.cols = contains("e") & where(is.numeric),
                      .fns  = list(mean = ~mean(na.omit(.x)),
                                   n = ~length(na.omit(.x))
                                   ),
                      .names = "{.col}_{.fn}"
                      )
            ) 

`summarise()` has grouped output by 'team'. You can override using the
`.groups` argument.

# A tibble: 44 × 6
# Groups:   team [2]
   team   event               time_mean time_n sec_mean sec_n
   <chr>  <chr>                   <dbl>  <int>    <dbl> <int>
 1 Athena 100 BACK               3421.      10   3421.     10
 2 Athena 100 BREAST               64.0     10     64.0    10
 3 Athena 100 BRST-Relay Spl.      63.6     10     63.6    10
 4 Athena 100 FLY                3365.      10   3365.     10
 5 Athena 100 FLY-Relay Spl.     3332.      10   3332.     10
 6 Athena 100 FREE               3115.      10   3115.     10
 7 Athena 100 FREE-Relay Spl.    3088.      10   3088.     10
 8 Athena 1000 FREE               625.      10    625.     10
 9 Athena 1650 FREE              1031.      10   1031.     10
10 Athena 200 BACK                124.      10    124.     10
# ℹ 34 more rows
…
Without grouping:

summarizer(DAT, cols = contains("e"))

# A tibble: 1 × 4
  time_mean time_sd sec_mean sec_sd
      <dbl>   <dbl>    <dbl>  <dbl>
1     1310.   1225.    1309.  1226.

With grouping:

summarizer(DAT, cols = c(min, hour), event)

# A tibble: 22 × 5
   event               min_mean min_sd hour_mean hour_sd
   <chr>                  <dbl>  <dbl>     <dbl>   <dbl>
 1 100 BACK               53.5   3.76     0.891  0.0626 
 2 100 BREAST             28.8  28.4      0.479  0.473  
 3 100 BRST-Relay Spl.    28.5  28.1      0.475  0.469  
 4 100 FLY                52.6   3.63     0.877  0.0605 
 5 100 FLY-Relay Spl.     52.2   3.44     0.871  0.0573 
 6 100 FREE               48.6   3.43     0.810  0.0571 
 7 100 FREE-Relay Spl.    48.1   3.46     0.802  0.0576 
 8 1000 FREE              10.0   0.432    0.167  0.00719
 9 1650 FREE              16.5   0.728    0.275  0.0121 
10 200 BACK                1.94  0.136    0.0324 0.00227
# ℹ 12 more rows
…
