PSYC167 - {ggplot} and the grammar of graphics
…
OK, so still nothing. That’s because we haven’t told ggplot() what visual properties or aesthetics to include in the plot. Importantly, you do not have to provide this information in a base layer. {ggplot2} is flexible insofar as you can pass data in different places depending what data you want to use and at which layer on how you will use it.

If you set data = SWIM, the subsequent layers of the plot will inherit that data frame if you do not pass the argument in a different layer. However, you are not limited to passing only one data set. You might wish to plot the aesthetics of one data frame in one layer and then add another layer of aesthetics taken from a different data frame. TLDR; you can pass data, or not pass data, in the initialization of the base layer.

Scaling/Scale Transformation

print(SWIM)

# A tibble: 440 × 5
    Time Name             Year  Event   Team  
   <dbl> <chr>            <chr> <chr>   <chr> 
 1  1409 Jocelyn Crawford 2019  50 FREE Athena
 2  1411 Ava Sealander    2022  50 FREE Athena
 3  1429 Kelly Ngo        2016  50 FREE Athena
 4  1451 Helen Liu        2014  50 FREE Athena
 5  1456 Michele Kee      2014  50 FREE Athena
 6  1457 Natalia Orbach-M 2020  50 FREE Athena
 7  1457 Suzia Starzyk    2020  50 FREE Athena
 8  1467 Katie Bilotti    2010  50 FREE Athena
 9  1473 Jenni Rinker     2011  50 FREE Athena
10  1442 Annika Sharma    2023  50 FREE Athena
# ℹ 430 more rows
…
