PSYC167 - Attentional control
…
How about if you wanted to track the best performers over time. Or the single best athlete for an event.

Here is just a simple example for highlighting athletes by particular performance metric. Identify the names of the athletes who performed the best in any year (e.g., max()) and those to have the worst average (e.g., something like min(median(x)) because one could just have a flop as a minimum).

(best_names <- DATA |>
  group_by(Year, Team) |>
  slice_max(Score) |> 
  ungroup()
)

# A tibble: 25 × 7
   Athlete            Rank Score Meet                          Date  Team   Year
   <chr>             <dbl> <dbl> <chr>                         <chr> <chr> <dbl>
 1 Guang, Bonny          2  41.6 Cal Lu - CMS - La Verne - Wh… Mar … Athe…  2010
 2 Berliant, Taylor      3  61.0 SCIAC Quad Meet               Apr … Stag   2010
 3 Berliant, Taylor      4  61.6 2011 NCAA Division III Outdo… May … Stag   2011
 4 Kroll, Jackie        NA  35.7 2012 Pomona-Pitzer T&F Invite Apr … Athe…  2012
 5 Gage, Chris          NA  53.4 Chapman/CMS/Pomona-Pitzer/Re… Mar … Stag   2012
 6 Kroll, Jackie         2  37.7 SCIAC Quad Meet               Apr … Athe…  2013
 7 Hobbs, Nicholas       3  53.6 Oxy Invitational              May … Stag   2013
 8 Laliberte, Nicole     1  42.4 SCIAC Multi Duals Meet #3     Apr … Athe…  2014
 9 Rich, Alex            2  51.0 2014 Pomona-Pitzer T&F All C… Feb … Stag   2014
10 Bassett, Emily        1  51.0 Pomona-Pitzer/Whittier/La Ve… Mar … Athe…  2015
# ℹ 15 more rows
…
